{
  "project_info": {
    "project_number": "491592792332",
    "firebase_url": "https://smart-wallet-e7fed.firebaseio.com",
    "project_id": "smart-wallet-e7fed",
    "storage_bucket": "smart-wallet-e7fed.appspot.com"
  },
  "client": [
    {
      "client_info": {
        "mobilesdk_app_id": "1:491592792332:android:f3c76fa568bc7e0a6fb129",
        "android_client_info": {
          "package_name": "com.upt.cti.smartwallet"
        }
      },
      "oauth_client": [
        {
          "client_id": "491592792332-j258e0stnnqadbbh7c7k5jtrt0ptbl5b.apps.googleusercontent.com",
          "client_type": 3
        }
      ],
      "api_key": [
        {
          "current_key": "AIzaSyAWbHDFVxbqa4e2JFRAmq3-eN9lTRVUvOU"
        }
      ],
      "services": {
        "appinvite_service": {
          "other_platform_oauth_client": [
            {
              "client_id": "491592792332-j258e0stnnqadbbh7c7k5jtrt0ptbl5b.apps.googleusercontent.com",
              "client_type": 3
            }
          ]
        }
      }
    }
  ],
  "configuration_version": "1"
}